<?xml version="1.0" encoding="UTF-8" standalone="no"?>
<!-- Created with Inkscape (http://www.inkscape.org/) -->

<svg
   width="335.54459mm"
   height="209.80038mm"
   viewBox="0 0 335.54459 209.80038"
   version="1.1"
   id="svg5"
   inkscape:version="1.1.2 (0a00cf5339, 2022-02-04)"
   sodipodi:docname="08_555_astable.svg"
   xmlns:inkscape="http://www.inkscape.org/namespaces/inkscape"
   xmlns:sodipodi="http://sodipodi.sourceforge.net/DTD/sodipodi-0.dtd"
   xmlns="http://www.w3.org/2000/svg"
   xmlns:svg="http://www.w3.org/2000/svg">
  <sodipodi:namedview
     id="namedview7"
     pagecolor="#505050"
     bordercolor="#eeeeee"
     borderopacity="1"
     inkscape:pageshadow="0"
     inkscape:pageopacity="0"
     inkscape:pagecheckerboard="0"
     inkscape:document-units="mm"
     showgrid="false"
     inkscape:snap-global="true"
     inkscape:zoom="0.5228404"
     inkscape:cx="591.95885"
     inkscape:cy="535.53627"
     inkscape:window-width="1920"
     inkscape:window-height="1012"
     inkscape:window-x="0"
     inkscape:window-y="0"
     inkscape:window-maximized="1"
     inkscape:current-layer="layer1"
     inkscape:snap-midpoints="true"
     showguides="false"
     fit-margin-top="0"
     fit-margin-left="0"
     fit-margin-right="0"
     fit-margin-bottom="0" />
  <defs
     id="defs2">
    <marker
       style="overflow:visible"
       id="Arrow2Mend"
       refX="0"
       refY="0"
       orient="auto"
       inkscape:stockid="Arrow2Mend"
       inkscape:isstock="true">
      <path
         transform="scale(-0.6)"
         d="M 8.7185878,4.0337352 -2.2072895,0.01601326 8.7185884,-4.0017078 c -1.7454984,2.3720609 -1.7354408,5.6174519 -6e-7,8.035443 z"
         style="fill:context-stroke;fill-rule:evenodd;stroke:context-stroke;stroke-width:0.625;stroke-linejoin:round"
         id="path178223" />
    </marker>
    <marker
       style="overflow:visible"
       id="Arrow1Mend"
       refX="0"
       refY="0"
       orient="auto"
       inkscape:stockid="Arrow1Mend"
       inkscape:isstock="true">
      <path
         transform="matrix(-0.4,0,0,-0.4,-4,0)"
         style="fill:context-stroke;fill-rule:evenodd;stroke:context-stroke;stroke-width:1pt"
         d="M 0,0 5,-5 -12.5,0 5,5 Z"
         id="path178205" />
    </marker>
    <marker
       style="overflow:visible"
       id="Arrow1Lend"
       refX="0"
       refY="0"
       orient="auto"
       inkscape:stockid="Arrow1Lend"
       inkscape:isstock="true">
      <path
         transform="matrix(-0.8,0,0,-0.8,-10,0)"
         style="fill:context-stroke;fill-rule:evenodd;stroke:context-stroke;stroke-width:1pt"
         d="M 0,0 5,-5 -12.5,0 5,5 Z"
         id="path178199" />
    </marker>
    <marker
       style="overflow:visible"
       id="Arrow2Mend-0"
       refX="0"
       refY="0"
       orient="auto"
       inkscape:stockid="Arrow2Mend"
       inkscape:isstock="true">
      <path
         transform="scale(-0.6)"
         d="M 8.7185878,4.0337352 -2.2072895,0.01601326 8.7185884,-4.0017078 c -1.7454984,2.3720609 -1.7354408,5.6174519 -6e-7,8.035443 z"
         style="fill:context-stroke;fill-rule:evenodd;stroke:context-stroke;stroke-width:0.625;stroke-linejoin:round"
         id="path178223-8" />
    </marker>
    <marker
       style="overflow:visible"
       id="Arrow2Mend-3"
       refX="0"
       refY="0"
       orient="auto"
       inkscape:stockid="Arrow2Mend"
       inkscape:isstock="true">
      <path
         transform="scale(-0.6)"
         d="M 8.7185878,4.0337352 -2.2072895,0.01601326 8.7185884,-4.0017078 c -1.7454984,2.3720609 -1.7354408,5.6174519 -6e-7,8.035443 z"
         style="fill:context-stroke;fill-rule:evenodd;stroke:context-stroke;stroke-width:0.625;stroke-linejoin:round"
         id="path178223-1" />
    </marker>
    <marker
       style="overflow:visible"
       id="Arrow2Mend-0-1"
       refX="0"
       refY="0"
       orient="auto"
       inkscape:stockid="Arrow2Mend"
       inkscape:isstock="true">
      <path
         transform="scale(-0.6)"
         d="M 8.7185878,4.0337352 -2.2072895,0.01601326 8.7185884,-4.0017078 c -1.7454984,2.3720609 -1.7354408,5.6174519 -6e-7,8.035443 z"
         style="fill:context-stroke;fill-rule:evenodd;stroke:context-stroke;stroke-width:0.625;stroke-linejoin:round"
         id="path178223-8-0" />
    </marker>
    <marker
       style="overflow:visible"
       id="Arrow2Mend-3-3"
       refX="0"
       refY="0"
       orient="auto"
       inkscape:stockid="Arrow2Mend"
       inkscape:isstock="true">
      <path
         transform="scale(-0.6)"
         d="M 8.7185878,4.0337352 -2.2072895,0.01601326 8.7185884,-4.0017078 c -1.7454984,2.3720609 -1.7354408,5.6174519 -6e-7,8.035443 z"
         style="fill:context-stroke;fill-rule:evenodd;stroke:context-stroke;stroke-width:0.625;stroke-linejoin:round"
         id="path178223-1-6" />
    </marker>
    <marker
       style="overflow:visible"
       id="Arrow2Mend-0-1-7"
       refX="0"
       refY="0"
       orient="auto"
       inkscape:stockid="Arrow2Mend"
       inkscape:isstock="true">
      <path
         transform="scale(-0.6)"
         d="M 8.7185878,4.0337352 -2.2072895,0.01601326 8.7185884,-4.0017078 c -1.7454984,2.3720609 -1.7354408,5.6174519 -6e-7,8.035443 z"
         style="fill:context-stroke;fill-rule:evenodd;stroke:context-stroke;stroke-width:0.625;stroke-linejoin:round"
         id="path178223-8-0-5" />
    </marker>
    <marker
       style="overflow:visible"
       id="Arrow2Mend-3-1"
       refX="0"
       refY="0"
       orient="auto"
       inkscape:stockid="Arrow2Mend"
       inkscape:isstock="true">
      <path
         transform="scale(-0.6)"
         d="M 8.7185878,4.0337352 -2.2072895,0.01601326 8.7185884,-4.0017078 c -1.7454984,2.3720609 -1.7354408,5.6174519 -6e-7,8.035443 z"
         style="fill:context-stroke;fill-rule:evenodd;stroke:context-stroke;stroke-width:0.625;stroke-linejoin:round"
         id="path178223-1-5" />
    </marker>
    <marker
       style="overflow:visible"
       id="Arrow2Mend-0-1-5"
       refX="0"
       refY="0"
       orient="auto"
       inkscape:stockid="Arrow2Mend"
       inkscape:isstock="true">
      <path
         transform="scale(-0.6)"
         d="M 8.7185878,4.0337352 -2.2072895,0.01601326 8.7185884,-4.0017078 c -1.7454984,2.3720609 -1.7354408,5.6174519 -6e-7,8.035443 z"
         style="fill:context-stroke;fill-rule:evenodd;stroke:context-stroke;stroke-width:0.625;stroke-linejoin:round"
         id="path178223-8-0-4" />
    </marker>
  </defs>
  <g
     inkscape:label="Calque 1"
     inkscape:groupmode="layer"
     id="layer1"
     transform="translate(97.504349,-1159.9589)">
    <text
       xml:space="preserve"
       style="font-size:10.5833px;line-height:1.25;font-family:'Bitstream Vera Sans Mono';-inkscape-font-specification:'Bitstream Vera Sans Mono';letter-spacing:0px;word-spacing:0px;stroke-width:0.264583"
       x="90.813637"
       y="104.16666"
       id="text48307"><tspan
         sodipodi:role="line"
         id="tspan48305"
         style="stroke-width:0.264583"
         x="90.813637"
         y="104.16666" /></text>
    <g
       id="g94721">
      <rect
         style="fill:#ffffff;fill-opacity:1;stroke:none;stroke-width:0.633477;stroke-linecap:round;stroke-linejoin:miter;stroke-miterlimit:4;stroke-dasharray:2.53392, 5.06784;stroke-dashoffset:0"
         id="rect159889-5-4-6"
         width="335.54459"
         height="209.80038"
         x="-97.504349"
         y="1159.9589" />
      <g
         id="g177705-4-0-5"
         transform="translate(239.37793,734.69419)">
        <path
           style="fill:#0000ff;stroke:#0000ff;stroke-width:0.9;stroke-linecap:round;stroke-linejoin:miter;stroke-miterlimit:4;stroke-dasharray:none;stroke-opacity:1"
           d="m -27.690971,606.41258 h 5.74729"
           id="path72774-1-0-3-6" />
        <path
           style="fill:#0000ff;stroke:#0000ff;stroke-width:0.9;stroke-linecap:round;stroke-linejoin:miter;stroke-miterlimit:4;stroke-dasharray:none;stroke-opacity:1"
           d="m -26.920581,607.84456 h 4.2065"
           id="path72776-7-6-9-9" />
        <path
           style="fill:#0000ff;stroke:#0000ff;stroke-width:0.9;stroke-linecap:round;stroke-linejoin:miter;stroke-miterlimit:4;stroke-dasharray:none;stroke-opacity:1"
           d="m -26.106011,609.27651 h 2.57737"
           id="path72778-2-2-1-3" />
        <path
           style="fill:#0000ff;stroke:#0000ff;stroke-width:0.9;stroke-linecap:round;stroke-linejoin:miter;stroke-miterlimit:4;stroke-dasharray:none;stroke-opacity:1"
           d="M -24.817331,606.37107 V 603.8441"
           id="path72911-7-99-9-7" />
      </g>
      <path
         style="fill:none;stroke:#0000ff;stroke-width:0.9;stroke-linecap:round;stroke-linejoin:round;stroke-miterlimit:4;stroke-dasharray:none;stroke-opacity:1"
         d="m 214.59414,1319.674 5.3e-4,-1.9286 -1.77615,-1.2311 3.29351,-1.8313 -3.27374,-1.5955 3.24996,-1.7803 -3.28615,-1.6925 3.29487,-1.6253 -1.48013,-1.2079 -0.0337,-2.5027"
         id="path69421-49-2-6-4"
         sodipodi:nodetypes="cccccccccc" />
      <path
         style="fill:none;stroke:#0000ff;stroke-width:0.9;stroke-linecap:round;stroke-linejoin:round;stroke-miterlimit:4;stroke-dasharray:none;stroke-opacity:1"
         d="m -63.781902,1254.8755 5.3e-4,-1.9285 -1.77615,-1.2312 3.29351,-1.8312 -3.27374,-1.5956 3.24996,-1.7802 -3.28615,-1.6926 3.29487,-1.6252 -1.48013,-1.2079 -0.0337,-2.5027"
         id="path69421-49-0-7"
         sodipodi:nodetypes="cccccccccc" />
      <path
         sodipodi:type="star"
         id="path69-0-4-8"
         inkscape:flatsided="false"
         sodipodi:sides="3"
         sodipodi:cx="262.12796"
         sodipodi:cy="494.64664"
         sodipodi:r1="73.109612"
         sodipodi:r2="36.554806"
         sodipodi:arg1="0"
         sodipodi:arg2="1.0471976"
         inkscape:rounded="0"
         inkscape:randomized="0"
         transform="matrix(0.1889081,0,0,0.17786307,16.477367,1181.2409)"
         inkscape:transform-center-x="-3.4527503"
         style="fill:#00aa88;stroke:#000000;stroke-width:2.76234;stroke-miterlimit:4;stroke-dasharray:none"
         d="m 335.23757,494.64664 -54.83221,31.65739 -54.83221,31.65739 0,-63.31478 0,-63.31478 54.83221,31.65739 z" />
      <text
         xml:space="preserve"
         style="font-size:6.18198px;line-height:1.25;font-family:'Bitstream Vera Sans Mono';-inkscape-font-specification:'Bitstream Vera Sans Mono';letter-spacing:0px;word-spacing:0px;fill:#d5f6ff;stroke-width:0.15455"
         x="60.370041"
         y="1266.4702"
         id="text9398-9-6-6"><tspan
           sodipodi:role="line"
           style="fill:#d5f6ff;stroke-width:0.15455"
           x="60.370041"
           y="1266.4702"
           id="tspan9400-6-2-8">+ </tspan></text>
      <text
         xml:space="preserve"
         style="font-size:6.18198px;line-height:1.25;font-family:'Bitstream Vera Sans Mono';-inkscape-font-specification:'Bitstream Vera Sans Mono';letter-spacing:0px;word-spacing:0px;fill:#d5f6ff;stroke-width:0.15455"
         x="60.502853"
         y="1275.7924"
         id="text43624-3-6-8"><tspan
           sodipodi:role="line"
           id="tspan43622-8-7-4"
           style="fill:#d5f6ff;stroke-width:0.15455"
           x="60.502853"
           y="1275.7924">-</tspan></text>
      <path
         sodipodi:type="star"
         id="path69-3-5-5-3"
         inkscape:flatsided="false"
         sodipodi:sides="3"
         sodipodi:cx="262.12796"
         sodipodi:cy="494.64664"
         sodipodi:r1="73.109612"
         sodipodi:r2="36.554806"
         sodipodi:arg1="0"
         sodipodi:arg2="1.0471976"
         inkscape:rounded="0"
         inkscape:randomized="0"
         transform="matrix(0.1889081,0,0,0.17786307,16.477367,1220.5708)"
         inkscape:transform-center-x="-3.4527503"
         style="fill:#00aa88;stroke:#000000;stroke-width:2.76234;stroke-miterlimit:4;stroke-dasharray:none"
         d="m 335.23757,494.64664 -54.83221,31.65739 -54.83221,31.65739 0,-63.31478 0,-63.31478 54.83221,31.65739 z" />
      <text
         xml:space="preserve"
         style="font-size:6.18198px;line-height:1.25;font-family:'Bitstream Vera Sans Mono';-inkscape-font-specification:'Bitstream Vera Sans Mono';letter-spacing:0px;word-spacing:0px;fill:#d5f6ff;stroke-width:0.15455"
         x="60.370041"
         y="1305.8002"
         id="text9398-1-6-6-1"><tspan
           sodipodi:role="line"
           style="fill:#d5f6ff;stroke-width:0.15455"
           x="60.370041"
           y="1305.8002"
           id="tspan9400-9-1-9-4">+ </tspan></text>
      <text
         xml:space="preserve"
         style="font-size:6.18198px;line-height:1.25;font-family:'Bitstream Vera Sans Mono';-inkscape-font-specification:'Bitstream Vera Sans Mono';letter-spacing:0px;word-spacing:0px;fill:#d5f6ff;stroke-width:0.15455"
         x="60.502853"
         y="1315.1223"
         id="text43624-4-1-8-9"><tspan
           sodipodi:role="line"
           id="tspan43622-7-5-7-2"
           style="fill:#d5f6ff;stroke-width:0.15455"
           x="60.502853"
           y="1315.1223">-</tspan></text>
      <rect
         style="fill:#00aad4;stroke:#000000;stroke-width:0.499999;stroke-miterlimit:4;stroke-dasharray:none"
         id="rect46761-9-2-0"
         width="23.190262"
         height="39.445847"
         x="105.06365"
         y="1269.2886" />
      <text
         xml:space="preserve"
         style="font-size:4.85196px;line-height:1.25;font-family:sans-serif;-inkscape-font-specification:sans-serif;letter-spacing:0px;word-spacing:0px;fill:#d5f6ff;stroke-width:0.121299"
         x="107.94116"
         y="1278.6067"
         id="text57029-8-8-6"><tspan
           sodipodi:role="line"
           id="tspan57027-4-2-8"
           style="fill:#d5f6ff;stroke-width:0.121299"
           x="107.94116"
           y="1278.6067">R</tspan></text>
      <text
         xml:space="preserve"
         style="font-size:4.85196px;line-height:1.25;font-family:sans-serif;-inkscape-font-specification:sans-serif;letter-spacing:0px;word-spacing:0px;fill:#d5f6ff;stroke-width:0.121299"
         x="108.23019"
         y="1302.3716"
         id="text58997-8-9-9"><tspan
           sodipodi:role="line"
           id="tspan58995-1-9-2"
           style="fill:#d5f6ff;stroke-width:0.121299"
           x="108.23019"
           y="1302.3716">S</tspan></text>
      <text
         xml:space="preserve"
         style="font-size:4.85196px;line-height:1.25;font-family:sans-serif;-inkscape-font-specification:sans-serif;letter-spacing:0px;word-spacing:0px;fill:#d5f6ff;stroke-width:0.121299"
         x="121.69097"
         y="1278.3258"
         id="text60807-0-6-6"><tspan
           sodipodi:role="line"
           id="tspan60805-3-0-6"
           style="fill:#d5f6ff;stroke-width:0.121299"
           x="121.69097"
           y="1278.3258">Q</tspan></text>
      <text
         xml:space="preserve"
         style="font-size:4.85196px;line-height:1.25;font-family:sans-serif;-inkscape-font-specification:sans-serif;letter-spacing:0px;word-spacing:0px;fill:#d5f6ff;stroke-width:0.121299"
         x="121.69096"
         y="1302.6222"
         id="text60035-0-2-4"><tspan
           sodipodi:role="line"
           id="tspan60033-4-7-9"
           style="fill:#d5f6ff;stroke-width:0.121299"
           x="121.69096"
           y="1302.6222">Q</tspan></text>
      <path
         style="fill:#d7eef4;stroke:#d7eef4;stroke-width:0.395185;stroke-linecap:butt;stroke-linejoin:miter;stroke-opacity:1"
         d="m 122.10416,1298.5111 h 2.99264"
         id="path64484-4-6-5" />
      <circle
         style="fill:none;fill-opacity:1;stroke:#000000;stroke-width:0.9;stroke-miterlimit:4;stroke-dasharray:none"
         id="path64955-3-4-1-0"
         cx="116.65879"
         cy="1227.9407"
         r="1.1241155" />
      <circle
         style="fill:none;fill-opacity:1;stroke:#000000;stroke-width:0.9;stroke-miterlimit:4;stroke-dasharray:none"
         id="path64955-2-4-3-4"
         cx="167.84245"
         cy="1227.9407"
         r="1.1241155" />
      <circle
         style="fill:none;fill-opacity:1;stroke:#000000;stroke-width:0.9;stroke-miterlimit:4;stroke-dasharray:none"
         id="path64955-0-7-2-8"
         cx="44.782177"
         cy="1227.9407"
         r="1.1241155" />
      <circle
         style="fill:none;fill-opacity:1;stroke:#000000;stroke-width:0.9;stroke-miterlimit:4;stroke-dasharray:none"
         id="path64955-6-6-1-7"
         cx="30.826757"
         cy="1227.9407"
         r="1.1241155" />
      <circle
         style="fill:none;fill-opacity:1;stroke:#000000;stroke-width:0.9;stroke-miterlimit:4;stroke-dasharray:none"
         id="path64955-1-3-5-1"
         cx="-8.5346947"
         cy="1264.7526"
         r="1.1241155" />
      <circle
         style="fill:none;fill-opacity:1;stroke:#000000;stroke-width:0.9;stroke-miterlimit:4;stroke-dasharray:none"
         id="path64955-5-1-9-7"
         cx="-8.5346947"
         cy="1313.4839"
         r="1.1241155" />
      <circle
         style="fill:none;fill-opacity:1;stroke:#000000;stroke-width:0.9;stroke-miterlimit:4;stroke-dasharray:none"
         id="path64955-54-7-9-2"
         cx="30.557043"
         cy="1345.3093"
         r="1.1241155" />
      <circle
         style="fill:none;fill-opacity:1;stroke:#000000;stroke-width:0.9;stroke-miterlimit:4;stroke-dasharray:none"
         id="path64955-7-5-1-7"
         cx="200.08098"
         cy="1301.5872"
         r="1.1241155" />
      <circle
         style="fill:none;fill-opacity:1;stroke:#000000;stroke-width:0.9;stroke-miterlimit:4;stroke-dasharray:none"
         id="path64955-65-9-4-2"
         cx="154.17191"
         cy="1301.4955"
         r="1.1241155" />
      <circle
         style="fill:none;fill-opacity:1;stroke:#000000;stroke-width:0.9;stroke-miterlimit:4;stroke-dasharray:none"
         id="path64955-69-6-9-2"
         cx="130.07803"
         cy="1301.4955"
         r="1.1241155" />
      <circle
         style="fill:none;fill-opacity:1;stroke:#000000;stroke-width:0.9;stroke-miterlimit:4;stroke-dasharray:none"
         id="path64955-37-2-1-6"
         cx="116.65879"
         cy="1267.4645"
         r="1.1241155" />
      <circle
         style="fill:#000000;fill-opacity:1;stroke:#000000;stroke-width:0.81419;stroke-miterlimit:4;stroke-dasharray:none"
         id="path64955-8-8-1-0-1"
         cx="44.865414"
         cy="1274.3428"
         r="1.0169374" />
      <circle
         style="fill:#000000;fill-opacity:1;stroke:#000000;stroke-width:0.81419;stroke-miterlimit:4;stroke-dasharray:none"
         id="path64955-8-4-7-7-0"
         cx="30.557043"
         cy="1274.3481"
         r="1.0169374" />
      <circle
         style="fill:#000000;fill-opacity:1;stroke:#000000;stroke-width:0.81419;stroke-miterlimit:4;stroke-dasharray:none"
         id="path64955-8-5-8-5-6"
         cx="30.557043"
         cy="1304.5166"
         r="1.0169374" />
      <circle
         style="fill:#000000;fill-opacity:1;stroke:#000000;stroke-width:0.81419;stroke-miterlimit:4;stroke-dasharray:none"
         id="path64955-8-2-5-8-1"
         cx="141.75447"
         cy="1301.4955"
         r="1.0169374" />
      <path
         style="fill:none;stroke:#000000;stroke-width:0.9;stroke-linecap:round;stroke-linejoin:round;stroke-miterlimit:4;stroke-dasharray:none;stroke-opacity:1"
         d="m 30.599218,1259.3742 5.3e-4,-1.9286 -1.77615,-1.2311 3.29351,-1.8313 -3.27374,-1.5955 3.24996,-1.7803 -3.28615,-1.6925 3.29487,-1.6253 -1.48013,-1.2079 -0.0337,-2.5026"
         id="path69421-7-7-5"
         sodipodi:nodetypes="cccccccccc" />
      <path
         style="fill:none;stroke:#000000;stroke-width:0.9;stroke-linecap:round;stroke-linejoin:round;stroke-miterlimit:4;stroke-dasharray:none;stroke-opacity:1"
         d="m 30.599218,1296.3493 5.3e-4,-1.9286 -1.77615,-1.2311 3.29351,-1.8312 -3.27374,-1.5956 3.24996,-1.7803 -3.28615,-1.6925 3.29487,-1.6253 -1.48013,-1.2079 -0.0337,-2.5026"
         id="path69421-8-4-0-9"
         sodipodi:nodetypes="cccccccccc" />
      <path
         style="fill:none;stroke:#000000;stroke-width:0.9;stroke-linecap:round;stroke-linejoin:round;stroke-miterlimit:4;stroke-dasharray:none;stroke-opacity:1"
         d="m 30.599218,1333.8967 5.3e-4,-1.9285 -1.77615,-1.2312 3.29351,-1.8312 -3.27374,-1.5956 3.24996,-1.7802 -3.28615,-1.6925 3.29487,-1.6253 -1.48013,-1.2079 -0.0337,-2.5027"
         id="path69421-4-1-4-4"
         sodipodi:nodetypes="cccccccccc" />
      <path
         style="fill:none;stroke:#000000;stroke-width:0.9;stroke-linecap:round;stroke-linejoin:round;stroke-miterlimit:4;stroke-dasharray:none;stroke-opacity:1"
         d="m 166.19687,1267.678 1.57959,2.6417 -3.04907,-0.3819"
         id="path71629-8-8-9"
         sodipodi:nodetypes="ccc" />
      <path
         style="fill:none;stroke:#000000;stroke-width:0.9;stroke-linecap:round;stroke-linejoin:round;stroke-miterlimit:4;stroke-dasharray:none;stroke-opacity:1"
         d="m 167.84246,1250.2332 v 5.7413 l -5.80833,3.9161 v 6.4205 l 5.85362,4.191 -0.009,3.3524"
         id="path71235-5-0-0"
         sodipodi:nodetypes="cccccc" />
      <path
         style="fill:none;stroke:#000000;stroke-width:0.9;stroke-linecap:round;stroke-linejoin:round;stroke-miterlimit:4;stroke-dasharray:none;stroke-opacity:1"
         d="m 161.9678,1257.5444 v 10.7145"
         id="path71352-9-4-9" />
      <path
         style="fill:none;stroke:#000000;stroke-width:0.9;stroke-linecap:round;stroke-linejoin:round;stroke-miterlimit:4;stroke-dasharray:none;stroke-opacity:1"
         d="m 157.6582,1262.9741 h 4.2166"
         id="path71354-7-2-1" />
      <path
         style="fill:none;stroke:#000000;stroke-width:0.9;stroke-linecap:round;stroke-linejoin:miter;stroke-miterlimit:4;stroke-dasharray:none;stroke-opacity:1"
         d="m 165.00511,1276.4229 h 5.74729"
         id="path72774-5-9-7" />
      <path
         style="fill:none;stroke:#000000;stroke-width:0.9;stroke-linecap:round;stroke-linejoin:miter;stroke-miterlimit:4;stroke-dasharray:none;stroke-opacity:1"
         d="m 165.7755,1277.8549 h 4.2065"
         id="path72776-3-6-7" />
      <path
         style="fill:none;stroke:#000000;stroke-width:0.9;stroke-linecap:round;stroke-linejoin:miter;stroke-miterlimit:4;stroke-dasharray:none;stroke-opacity:1"
         d="m 166.59007,1279.2869 h 2.57737"
         id="path72778-8-1-1" />
      <path
         style="fill:none;stroke:#000000;stroke-width:0.9;stroke-linecap:round;stroke-linejoin:miter;stroke-miterlimit:4;stroke-dasharray:none;stroke-opacity:1"
         d="m 167.87875,1276.3814 v -2.5269"
         id="path72911-8-0-1" />
      <rect
         style="fill:#ff6600;fill-opacity:1;stroke:#000000;stroke-width:0.5;stroke-linecap:round;stroke-linejoin:miter;stroke-miterlimit:4;stroke-dasharray:none"
         id="rect75054-3-4-5"
         width="24.441061"
         height="12.281726"
         x="155.99602"
         y="1295.3546" />
      <text
         xml:space="preserve"
         style="font-size:4.13752px;line-height:1.25;font-family:sans-serif;-inkscape-font-specification:sans-serif;letter-spacing:0px;word-spacing:0px;fill:#ffffff;stroke-width:0.103438"
         x="159.6627"
         y="1303.0016"
         id="text74464-1-2-9"><tspan
           sodipodi:role="line"
           id="tspan74462-8-2-7"
           style="fill:#ffffff;stroke-width:0.103438"
           x="159.6627"
           y="1303.0016">OUTPUT</tspan></text>
      <text
         xml:space="preserve"
         style="font-size:4.23333px;line-height:1.25;font-family:sans-serif;-inkscape-font-specification:sans-serif;letter-spacing:0px;word-spacing:0px;stroke-width:0.264583"
         x="48.330883"
         y="1224.3651"
         id="text77809-9-2-7"><tspan
           sodipodi:role="line"
           id="tspan77807-6-0-6"
           style="font-size:4.23333px;stroke-width:0.264583"
           x="48.330883"
           y="1224.3651">CONTROL</tspan><tspan
           sodipodi:role="line"
           style="font-size:4.23333px;stroke-width:0.264583"
           x="48.330883"
           y="1229.6567"
           id="tspan77833-4-5-7">VOLTAGE</tspan></text>
      <text
         xml:space="preserve"
         style="font-size:4.23333px;line-height:1.25;font-family:sans-serif;-inkscape-font-specification:sans-serif;letter-spacing:0px;word-spacing:0px;stroke-width:0.264583"
         x="119.2218"
         y="1227.8685"
         id="text89147-3-5-3"><tspan
           sodipodi:role="line"
           id="tspan89145-3-2-6"
           style="stroke-width:0.264583"
           x="119.2218"
           y="1227.8685">RESET</tspan><tspan
           sodipodi:role="line"
           style="stroke-width:0.264583"
           x="119.2218"
           y="1233.1602"
           id="tspan89149-3-9-5" /></text>
      <text
         xml:space="preserve"
         style="font-size:4.23333px;line-height:1.25;font-family:sans-serif;-inkscape-font-specification:sans-serif;letter-spacing:0px;word-spacing:0px;stroke-width:0.264583"
         x="170.55217"
         y="1227.8685"
         id="text93619-8-0-6"><tspan
           sodipodi:role="line"
           id="tspan93617-6-2-3"
           style="stroke-width:0.264583"
           x="170.55217"
           y="1227.8685">DISCHARGE</tspan><tspan
           sodipodi:role="line"
           style="stroke-width:0.264583"
           x="170.55217"
           y="1233.1602"
           id="tspan93621-0-8-9" /></text>
      <text
         xml:space="preserve"
         style="font-size:4.23333px;line-height:1.25;font-family:sans-serif;-inkscape-font-specification:sans-serif;letter-spacing:0px;word-spacing:0px;stroke-width:0.264583"
         x="19.757656"
         y="1227.8407"
         id="text95143-4-3-4"><tspan
           sodipodi:role="line"
           id="tspan95141-8-8-8"
           style="stroke-width:0.264583"
           x="19.757656"
           y="1227.8407">Vcc</tspan></text>
      <text
         xml:space="preserve"
         style="font-size:4.23333px;line-height:1.25;font-family:sans-serif;-inkscape-font-specification:sans-serif;letter-spacing:0px;word-spacing:0px;stroke-width:0.264583"
         x="-33.615856"
         y="1260.9481"
         id="text100181-8-0-1"><tspan
           sodipodi:role="line"
           style="stroke-width:0.264583"
           x="-33.615856"
           y="1260.9481"
           id="tspan165165-8-4-2">THRESHOLD</tspan></text>
      <text
         xml:space="preserve"
         style="font-size:4.23333px;line-height:1.25;font-family:sans-serif;-inkscape-font-specification:sans-serif;letter-spacing:0px;word-spacing:0px;stroke-width:0.264583"
         x="-26.490704"
         y="1309.7764"
         id="text103061-9-0-9"><tspan
           sodipodi:role="line"
           id="tspan103059-7-9-3"
           style="stroke-width:0.264583"
           x="-26.490704"
           y="1309.7764">TRIGGER</tspan><tspan
           sodipodi:role="line"
           style="stroke-width:0.264583"
           x="-26.490704"
           y="1315.068"
           id="tspan103063-7-1-9" /></text>
      <text
         xml:space="preserve"
         style="font-size:4.23333px;line-height:1.25;font-family:sans-serif;-inkscape-font-specification:sans-serif;letter-spacing:0px;word-spacing:0px;stroke-width:0.264583"
         x="199.83398"
         y="1298.3656"
         id="text112897-6-9-0"><tspan
           sodipodi:role="line"
           id="tspan112895-4-6-8"
           style="stroke-width:0.264583"
           x="199.83398"
           y="1298.3656">OUT</tspan><tspan
           sodipodi:role="line"
           style="stroke-width:0.264583"
           x="199.83398"
           y="1303.6572"
           id="tspan112899-3-2-8" /></text>
      <text
         xml:space="preserve"
         style="font-size:4.23333px;line-height:1.25;font-family:sans-serif;-inkscape-font-specification:sans-serif;letter-spacing:0px;word-spacing:0px;stroke-width:0.264583"
         x="25.709797"
         y="1352.8501"
         id="text114537-0-5-5"><tspan
           sodipodi:role="line"
           id="tspan114535-3-4-0"
           style="stroke-width:0.264583"
           x="25.709797"
           y="1352.8501">GND</tspan></text>
      <text
         xml:space="preserve"
         style="font-size:4.23333px;line-height:1.25;font-family:sans-serif;-inkscape-font-specification:sans-serif;letter-spacing:0px;word-spacing:0px;stroke-width:0.264583"
         x="24.79105"
         y="1343.632"
         id="text120003-5-0-4-9"><tspan
           sodipodi:role="line"
           id="tspan120001-4-9-9-6"
           style="stroke-width:0.264583"
           x="24.79105"
           y="1343.632">1</tspan></text>
      <text
         xml:space="preserve"
         style="font-size:4.23333px;line-height:1.25;font-family:sans-serif;-inkscape-font-specification:sans-serif;letter-spacing:0px;word-spacing:0px;stroke-width:0.264583"
         x="-6.5888934"
         y="1318.9695"
         id="text121473-7-2-9-3"><tspan
           sodipodi:role="line"
           id="tspan121471-4-5-3-8"
           style="stroke-width:0.264583"
           x="-6.5888934"
           y="1318.9695">2</tspan></text>
      <text
         xml:space="preserve"
         style="font-size:4.23333px;line-height:1.25;font-family:sans-serif;-inkscape-font-specification:sans-serif;letter-spacing:0px;word-spacing:0px;stroke-width:0.264583"
         x="194.62857"
         y="1299.6707"
         id="text122291-4-4-6-5"><tspan
           sodipodi:role="line"
           id="tspan122289-3-0-0-6"
           style="stroke-width:0.264583"
           x="194.62857"
           y="1299.6707">3</tspan></text>
      <text
         xml:space="preserve"
         style="font-size:4.23333px;line-height:1.25;font-family:sans-serif;-inkscape-font-specification:sans-serif;letter-spacing:0px;word-spacing:0px;stroke-width:0.264583"
         x="111.79678"
         y="1232.5914"
         id="text123153-0-5-5-1"><tspan
           sodipodi:role="line"
           id="tspan123151-7-9-0-1"
           style="stroke-width:0.264583"
           x="111.79678"
           y="1232.5914">4</tspan></text>
      <text
         xml:space="preserve"
         style="font-size:4.23333px;line-height:1.25;font-family:sans-serif;-inkscape-font-specification:sans-serif;letter-spacing:0px;word-spacing:0px;stroke-width:0.264583"
         x="39.3503"
         y="1232.5614"
         id="text123553-8-4-2-5"><tspan
           sodipodi:role="line"
           id="tspan123551-6-6-9-9"
           style="stroke-width:0.264583"
           x="39.3503"
           y="1232.5614">5</tspan></text>
      <text
         xml:space="preserve"
         style="font-size:4.23333px;line-height:1.25;font-family:sans-serif;-inkscape-font-specification:sans-serif;letter-spacing:0px;word-spacing:0px;stroke-width:0.264583"
         x="-6.6601977"
         y="1270.1683"
         id="text124811-8-9-4-8"><tspan
           sodipodi:role="line"
           id="tspan124809-8-2-3-4"
           style="stroke-width:0.264583"
           x="-6.6601977"
           y="1270.1683">6</tspan></text>
      <text
         xml:space="preserve"
         style="font-size:4.23333px;line-height:1.25;font-family:sans-serif;-inkscape-font-specification:sans-serif;letter-spacing:0px;word-spacing:0px;stroke-width:0.264583"
         x="162.41275"
         y="1232.5914"
         id="text125739-4-2-5-8"><tspan
           sodipodi:role="line"
           id="tspan125737-3-4-1-1"
           style="stroke-width:0.264583"
           x="162.41275"
           y="1232.5914">7</tspan></text>
      <text
         xml:space="preserve"
         style="font-size:4.23333px;line-height:1.25;font-family:sans-serif;-inkscape-font-specification:sans-serif;letter-spacing:0px;word-spacing:0px;stroke-width:0.264583"
         x="25.780842"
         y="1232.5894"
         id="text126513-1-7-7-0"><tspan
           sodipodi:role="line"
           id="tspan126511-4-7-4-3"
           style="stroke-width:0.264583"
           x="25.780842"
           y="1232.5894">8</tspan></text>
      <text
         xml:space="preserve"
         style="font-size:4.93889px;line-height:1.25;font-family:sans-serif;-inkscape-font-specification:sans-serif;letter-spacing:0px;word-spacing:0px;fill:#ff7f2a;stroke:#ff7f2a;stroke-width:0.264583"
         x="11.764173"
         y="1222.7181"
         id="text133293-5-3-0"><tspan
           sodipodi:role="line"
           id="tspan133291-4-1-4"
           style="font-size:4.93889px;fill:#ff7f2a;stroke:#ff7f2a;stroke-width:0.264583"
           x="11.764173"
           y="1222.7181">5V-15V</tspan></text>
      <text
         xml:space="preserve"
         style="font-size:4.93889px;line-height:1.25;font-family:sans-serif;-inkscape-font-specification:sans-serif;letter-spacing:0px;word-spacing:0px;fill:#ff7f2a;stroke:#ff7f2a;stroke-width:0.264583"
         x="20.481785"
         y="1253.3839"
         id="text133293-9-8-4-4"><tspan
           sodipodi:role="line"
           id="tspan133291-7-1-6-4"
           style="font-size:4.93889px;fill:#ff7f2a;stroke:#ff7f2a;stroke-width:0.264583"
           x="20.481785"
           y="1253.3839">5k</tspan></text>
      <text
         xml:space="preserve"
         style="font-size:4.93889px;line-height:1.25;font-family:sans-serif;-inkscape-font-specification:sans-serif;letter-spacing:0px;word-spacing:0px;fill:#ff7f2a;stroke:#ff7f2a;stroke-width:0.264583"
         x="21.123562"
         y="1289.7634"
         id="text133293-9-3-2-9-4"><tspan
           sodipodi:role="line"
           id="tspan133291-7-6-8-4-7"
           style="font-size:4.93889px;fill:#ff7f2a;stroke:#ff7f2a;stroke-width:0.264583"
           x="21.123562"
           y="1289.7634">5k</tspan></text>
      <text
         xml:space="preserve"
         style="font-size:4.93889px;line-height:1.25;font-family:sans-serif;-inkscape-font-specification:sans-serif;letter-spacing:0px;word-spacing:0px;fill:#ff7f2a;stroke:#ff7f2a;stroke-width:0.264583"
         x="20.843487"
         y="1328.5433"
         id="text133293-9-1-9-2-6"><tspan
           sodipodi:role="line"
           id="tspan133291-7-06-3-2-3"
           style="font-size:4.93889px;fill:#ff7f2a;stroke:#ff7f2a;stroke-width:0.264583"
           x="20.843487"
           y="1328.5433">5k</tspan></text>
      <text
         xml:space="preserve"
         style="font-size:4.93889px;line-height:1.25;font-family:sans-serif;-inkscape-font-specification:sans-serif;letter-spacing:0px;word-spacing:0px;fill:#ff7f2a;stroke:#ff7f2a;stroke-width:0.264583"
         x="8.2117662"
         y="1274.9363"
         id="text133293-3-6-6-1"><tspan
           sodipodi:role="line"
           id="tspan133291-6-8-4-7"
           style="font-size:4.93889px;fill:#ff7f2a;stroke:#ff7f2a;stroke-width:0.264583"
           x="8.2117662"
           y="1274.9363">2/3 Vcc</tspan></text>
      <text
         xml:space="preserve"
         style="font-size:4.93889px;line-height:1.25;font-family:sans-serif;-inkscape-font-specification:sans-serif;letter-spacing:0px;word-spacing:0px;fill:#ff7f2a;stroke:#ff7f2a;stroke-width:0.264583"
         x="8.7160463"
         y="1304.8551"
         id="text133293-1-0-1-5"><tspan
           sodipodi:role="line"
           id="tspan133291-2-2-2-9"
           style="font-size:4.93889px;fill:#ff7f2a;stroke:#ff7f2a;stroke-width:0.264583"
           x="8.7160463"
           y="1304.8551">1/3 Vcc</tspan><tspan
           sodipodi:role="line"
           style="font-size:4.93889px;fill:#ff7f2a;stroke:#ff7f2a;stroke-width:0.264583"
           x="8.7160463"
           y="1311.0287"
           id="tspan151162-1-8-6" /></text>
      <rect
         style="fill:none;fill-opacity:1;stroke:#000000;stroke-width:0.499999;stroke-linecap:round;stroke-linejoin:miter;stroke-miterlimit:4;stroke-dasharray:2, 3.99999;stroke-dashoffset:0"
         id="rect159683-0-8-2"
         width="186.58961"
         height="99.233681"
         x="3.0378001"
         y="1238.3998" />
      <path
         style="fill:none;stroke:#000000;stroke-width:0.9;stroke-linecap:butt;stroke-linejoin:miter;stroke-miterlimit:4;stroke-dasharray:none;stroke-opacity:1"
         d="m 30.599216,1333.8967 v 2.2571 7.9618"
         id="path160285-5-9-1"
         sodipodi:nodetypes="ccc" />
      <path
         style="fill:none;stroke:#000000;stroke-width:0.897454;stroke-linecap:butt;stroke-linejoin:miter;stroke-miterlimit:4;stroke-dasharray:none;stroke-opacity:1"
         d="m 30.588218,1318.5016 -0.07584,-14.0992 0.08684,-8.0531"
         id="path160636-1-2-7"
         sodipodi:nodetypes="ccc" />
      <path
         style="fill:none;stroke:#000000;stroke-width:0.9;stroke-linecap:butt;stroke-linejoin:miter;stroke-miterlimit:4;stroke-dasharray:none;stroke-opacity:1"
         d="m 30.588218,1280.9542 -0.03545,-6.6088 0.04645,-14.9712"
         id="path161077-1-8-8" />
      <path
         style="fill:none;stroke:#000000;stroke-width:0.9;stroke-linecap:butt;stroke-linejoin:miter;stroke-miterlimit:4;stroke-dasharray:none;stroke-opacity:1"
         d="m 30.588218,1243.9791 0.09572,-14.8484"
         id="path161112-0-8-5" />
      <path
         style="fill:#0000ff;stroke:#0000ff;stroke-width:0.9;stroke-linecap:round;stroke-linejoin:round;stroke-miterlimit:4;stroke-dasharray:none;stroke-opacity:1"
         d="m -63.792213,1239.4948 0.09433,-26.0048"
         id="path161112-8-3-8" />
      <path
         style="fill:#0000ff;stroke:#0000ff;stroke-width:0.9;stroke-linecap:butt;stroke-linejoin:miter;stroke-miterlimit:4;stroke-dasharray:none;stroke-opacity:1"
         d="m -63.791771,1308.7508 0.09344,-53.7368"
         id="path161112-8-3-8-1" />
      <path
         style="fill:#0000ff;stroke:#0000ff;stroke-width:0.9;stroke-linecap:round;stroke-linejoin:miter;stroke-miterlimit:4;stroke-dasharray:none;stroke-opacity:1"
         d="m -63.878482,1320.2369 0.0957,-11.9245"
         id="path161112-8-7-2-3-9" />
      <path
         style="fill:none;stroke:#000000;stroke-width:0.9;stroke-linecap:round;stroke-linejoin:miter;stroke-miterlimit:4;stroke-dasharray:none;stroke-opacity:1"
         d="m -7.3921419,1264.7909 66.4994799,-0.184 h -0.17259"
         id="path161561-8-3-5"
         sodipodi:nodetypes="ccc" />
      <path
         style="fill:none;stroke:#000000;stroke-width:0.9;stroke-linecap:round;stroke-linejoin:miter;stroke-miterlimit:4;stroke-dasharray:none;stroke-opacity:1"
         d="m -7.2194919,1313.6209 66.4996599,-0.095 -0.17259,-2e-4"
         id="path161561-9-5-8-3"
         sodipodi:nodetypes="ccc" />
      <path
         style="fill:#0000ff;stroke:#0000ff;stroke-width:0.9;stroke-linecap:round;stroke-linejoin:miter;stroke-miterlimit:4;stroke-dasharray:none;stroke-opacity:1"
         d="m -39.131412,1313.5286 29.6080001,-0.095 -0.076848,-2e-4"
         id="path161561-9-1-0-8"
         sodipodi:nodetypes="ccc" />
      <path
         style="fill:none;stroke:#000000;stroke-width:0.9;stroke-linecap:butt;stroke-linejoin:miter;stroke-miterlimit:4;stroke-dasharray:none;stroke-opacity:1"
         d="M 30.839744,1274.3544 H 58.809768"
         id="path162064-0-4-8" />
      <path
         style="fill:none;stroke:#000000;stroke-width:0.9;stroke-linecap:round;stroke-linejoin:miter;stroke-miterlimit:4;stroke-dasharray:none;stroke-opacity:1"
         d="m 128.45174,1276.9469 h 1.717"
         id="path162064-26-6-7-3" />
      <path
         style="fill:none;stroke:#000000;stroke-width:0.9;stroke-linecap:butt;stroke-linejoin:miter;stroke-miterlimit:4;stroke-dasharray:none;stroke-opacity:1"
         d="M 31.04423,1304.4517 H 59.014258"
         id="path162064-2-4-6-1" />
      <path
         style="fill:none;stroke:#000000;stroke-width:0.9;stroke-linecap:butt;stroke-linejoin:miter;stroke-miterlimit:4;stroke-dasharray:none;stroke-opacity:1"
         d="M 131.25638,1301.6078 H 152.7044"
         id="path162497-6-8-8" />
      <path
         style="fill:none;stroke:#000000;stroke-width:0.836658;stroke-linecap:butt;stroke-linejoin:miter;stroke-miterlimit:4;stroke-dasharray:none;stroke-opacity:1"
         d="m 180.28749,1301.5645 h 18.53525"
         id="path162497-9-2-9-9" />
      <path
         style="fill:none;stroke:#000000;stroke-width:0.9;stroke-linecap:butt;stroke-linejoin:miter;stroke-miterlimit:4;stroke-dasharray:none;stroke-opacity:1"
         d="m 116.65879,1229.176 v 37.2118"
         id="path162756-5-0-6" />
      <path
         style="fill:none;stroke:#000000;stroke-width:0.9;stroke-linecap:butt;stroke-linejoin:miter;stroke-miterlimit:4;stroke-dasharray:none;stroke-opacity:1"
         d="m 116.69287,1230.2921 v 36.3499"
         id="path162756-0-8-6-4" />
      <path
         style="fill:none;stroke:#000000;stroke-width:0.9;stroke-linecap:butt;stroke-linejoin:miter;stroke-miterlimit:4;stroke-dasharray:none;stroke-opacity:1"
         d="m 44.87968,1229.0588 v 45.5301"
         id="path162756-6-6-8-3" />
      <path
         style="fill:none;stroke:#000000;stroke-width:0.9;stroke-linecap:butt;stroke-linejoin:miter;stroke-miterlimit:4;stroke-dasharray:none;stroke-opacity:1"
         d="m 167.84245,1250.2332 v -21.1241"
         id="path162948-2-7-3" />
      <path
         style="fill:none;stroke:#000000;stroke-width:0.9;stroke-linecap:butt;stroke-linejoin:miter;stroke-miterlimit:4;stroke-dasharray:none;stroke-opacity:1"
         d="m 141.76609,1301.408 v -38.4748 l 15.8921,0.041"
         id="path163063-8-9-3"
         sodipodi:nodetypes="ccc" />
      <path
         style="fill:none;stroke:#000000;stroke-width:0.9;stroke-linecap:round;stroke-linejoin:round;stroke-miterlimit:4;stroke-dasharray:none;stroke-opacity:1"
         d="m 79.806459,1269.2202 h 13.50287 v 7.4296 l 11.564261,0.084"
         id="path163439-4-0-8" />
      <path
         style="fill:none;stroke:#000000;stroke-width:0.9;stroke-linecap:round;stroke-linejoin:round;stroke-miterlimit:4;stroke-dasharray:none;stroke-opacity:1"
         d="m 79.806459,1308.5502 h 13.50287 v -7.4296 l 11.564261,-0.084"
         id="path163439-6-7-3-6" />
      <circle
         style="fill:#0000ff;fill-opacity:1;stroke:#0000ff;stroke-width:0.9;stroke-miterlimit:4;stroke-dasharray:none"
         id="path64955-8-0-3-0"
         cx="-63.860897"
         cy="1287.5957"
         r="1.0169374" />
      <circle
         style="fill:#0000ff;fill-opacity:1;stroke:#0000ff;stroke-width:0.9;stroke-miterlimit:4;stroke-dasharray:none"
         id="path64955-8-0-3-0-2"
         cx="-39.448715"
         cy="1287.5957"
         r="1.0169374" />
      <path
         style="fill:none;stroke:#0000ff;stroke-width:0.9;stroke-linecap:round;stroke-linejoin:round;stroke-miterlimit:4;stroke-dasharray:none;stroke-opacity:1"
         d="M -63.733646,1213.4419 H 167.74793 v 13.4456"
         id="path168764-0-9" />
      <g
         id="g178159-8-2"
         transform="translate(-22.23729,737.28309)">
        <path
           sodipodi:type="star"
           style="opacity:1;fill:none;fill-opacity:1;stroke:#0000ff;stroke-width:2.94709;stroke-linecap:round;stroke-linejoin:round;stroke-miterlimit:4;stroke-dasharray:none;stroke-dashoffset:0"
           id="path177789-7-5"
           inkscape:flatsided="false"
           sodipodi:sides="3"
           sodipodi:cx="892.45941"
           sodipodi:cy="2231.3889"
           sodipodi:r1="15.007423"
           sodipodi:r2="7.5037117"
           sodipodi:arg1="1.5707963"
           sodipodi:arg2="2.6179939"
           inkscape:rounded="0"
           inkscape:randomized="0"
           transform="matrix(0.30538584,0,0,0.30538584,-35.845733,-91.697163)"
           inkscape:transform-center-x="5.5251937e-06"
           inkscape:transform-center-y="1.1457508"
           d="m 892.45941,2246.3963 -6.4984,-11.2555 -6.49841,-11.2556 12.99681,0 12.99681,0 -6.4984,11.2556 z" />
        <path
           style="fill:#0000ff;stroke:#0000ff;stroke-width:0.9;stroke-linecap:round;stroke-linejoin:round;stroke-miterlimit:4;stroke-dasharray:none;stroke-opacity:1"
           d="m 232.42137,594.89839 h 8.73864"
           id="path177904-0-4" />
      </g>
      <path
         style="fill:#0000ff;stroke:#0000ff;stroke-width:0.4;stroke-linecap:butt;stroke-linejoin:miter;stroke-miterlimit:4;stroke-dasharray:none;stroke-opacity:1;marker-end:url(#Arrow2Mend-3-1)"
         d="m 219.41667,1328.9462 2.99787,3.6501"
         id="path178194-8-0" />
      <path
         style="fill:#0000ff;stroke:#0000ff;stroke-width:0.4;stroke-linecap:butt;stroke-linejoin:miter;stroke-miterlimit:4;stroke-dasharray:none;stroke-opacity:1;marker-end:url(#Arrow2Mend-0-1-5)"
         d="m 221.1766,1327.6882 2.99787,3.6502"
         id="path178194-1-6-5"
         inkscape:transform-center-x="0.6543042"
         inkscape:transform-center-y="0.36638603" />
      <path
         style="fill:none;stroke:#0000ff;stroke-width:0.898377;stroke-linecap:butt;stroke-linejoin:round;stroke-miterlimit:4;stroke-dasharray:none;stroke-opacity:1"
         d="m 201.38565,1301.7587 h 13.19832 v 2.6715"
         id="path178893-2-9" />
      <path
         style="fill:none;stroke:#0000ff;stroke-width:0.9;stroke-linecap:butt;stroke-linejoin:miter;stroke-miterlimit:4;stroke-dasharray:none;stroke-opacity:1"
         d="m 214.59414,1319.6739 v 5.1075"
         id="path178895-4-4" />
      <path
         style="fill:none;stroke:#0000ff;stroke-width:0.9;stroke-linecap:butt;stroke-linejoin:miter;stroke-miterlimit:4;stroke-dasharray:none;stroke-opacity:1"
         d="m 214.5534,1331.6036 v 7.3154"
         id="path178897-7-6" />
      <text
         xml:space="preserve"
         style="font-size:5.64444px;line-height:1.25;font-family:sans-serif;-inkscape-font-specification:sans-serif;letter-spacing:0px;word-spacing:0px;fill:#0000ff;stroke-width:0.264583"
         x="217.51485"
         y="1313.5364"
         id="text181267-9-9"><tspan
           sodipodi:role="line"
           id="tspan181265-3-2"
           style="fill:#0000ff;stroke-width:0.264583"
           x="217.51485"
           y="1313.5364">68Ω</tspan></text>
      <text
         xml:space="preserve"
         style="font-size:6.35px;line-height:1.25;font-family:sans-serif;-inkscape-font-specification:sans-serif;letter-spacing:0px;word-spacing:0px;fill:#ff0000;stroke-width:0.264583"
         x="-10.157328"
         y="1171.2225"
         id="text191475-9-2"><tspan
           sodipodi:role="line"
           id="tspan191473-2-4"
           style="font-size:6.35px;fill:#ff0000;stroke-width:0.264583"
           x="-10.157328"
           y="1171.2225">555 - multivibrateur astable (oscillateur)</tspan></text>
      <path
         style="fill:none;stroke:#0000ff;stroke-width:0.878342;stroke-linecap:round;stroke-linejoin:round;stroke-miterlimit:4;stroke-dasharray:none;stroke-opacity:1"
         d="m -10.118775,1264.9165 h -29.487346 l 0.397559,48.6161"
         id="path229349-5" />
      <path
         style="fill:#0000ff;stroke:#0000ff;stroke-width:0.9;stroke-linecap:round;stroke-linejoin:miter;stroke-miterlimit:4;stroke-dasharray:none;stroke-opacity:1"
         d="m -66.799112,1336.8183 h 5.74729"
         id="path72774-1-6-3-4" />
      <path
         style="fill:#0000ff;stroke:#0000ff;stroke-width:0.9;stroke-linecap:round;stroke-linejoin:miter;stroke-miterlimit:4;stroke-dasharray:none;stroke-opacity:1"
         d="m -66.028722,1338.2503 h 4.2065"
         id="path72776-7-1-7-8" />
      <path
         style="fill:#0000ff;stroke:#0000ff;stroke-width:0.9;stroke-linecap:round;stroke-linejoin:miter;stroke-miterlimit:4;stroke-dasharray:none;stroke-opacity:1"
         d="m -65.214152,1339.6823 h 2.57737"
         id="path72778-2-5-3-8" />
      <path
         style="fill:#0000ff;stroke:#0000ff;stroke-width:0.9;stroke-linecap:round;stroke-linejoin:miter;stroke-miterlimit:4;stroke-dasharray:none;stroke-opacity:1"
         d="m -63.925472,1336.7768 v -2.5269"
         id="path72911-7-9-2-8" />
      <path
         style="fill:#0000ff;stroke:#0000ff;stroke-width:0.9;stroke-linecap:round;stroke-linejoin:miter;stroke-miterlimit:4;stroke-dasharray:none;stroke-opacity:1"
         d="m -63.925822,1334.2492 0.0964,-10.4212"
         id="path161112-8-7-7-8-3" />
      <path
         style="font-variation-settings:normal;fill:#0000ff;fill-opacity:1;stroke:#0000ff;stroke-width:0.9;stroke-linecap:round;stroke-linejoin:miter;stroke-miterlimit:4;stroke-dasharray:none;stroke-dashoffset:0;stroke-opacity:1;stop-color:#000000"
         d="m -67.981843,1320.2369 h 8.206722"
         id="path228307-7" />
      <path
         style="fill:#0000ff;stroke:#0000ff;stroke-width:0.9;stroke-linecap:round;stroke-linejoin:miter;stroke-miterlimit:4;stroke-dasharray:none;stroke-opacity:1"
         d="m -67.981843,1323.2853 h 8.206722"
         id="path228307-3-7" />
      <path
         style="fill:none;stroke:#0000ff;stroke-width:0.9;stroke-linecap:butt;stroke-linejoin:miter;stroke-miterlimit:4;stroke-dasharray:none;stroke-opacity:1"
         d="m -63.770194,1287.6466 h 24.482128"
         id="path58943" />
      <text
         xml:space="preserve"
         style="font-style:normal;font-weight:normal;font-size:7.09279px;line-height:1.25;font-family:sans-serif;letter-spacing:0px;word-spacing:0px;fill:#0000ff;fill-opacity:1;stroke:none;stroke-width:0.37997"
         x="-75.115517"
         y="1249.4346"
         id="text61821-2"><tspan
           sodipodi:role="line"
           id="tspan61819-1"
           style="font-size:7.09279px;fill:#0000ff;stroke-width:0.37997"
           x="-75.115517"
           y="1249.4346">R<tspan
   style="font-size:5.06628px;fill:#0000ff;stroke-width:0.37997"
   id="tspan68079-0">2</tspan></tspan></text>
      <text
         xml:space="preserve"
         style="font-style:normal;font-weight:normal;font-size:7.09279px;line-height:1.25;font-family:sans-serif;letter-spacing:0px;word-spacing:0px;fill:#0000ff;fill-opacity:1;stroke:none;stroke-width:0.37997"
         x="-74.994965"
         y="1323.1351"
         id="text61821-2-5"><tspan
           sodipodi:role="line"
           id="tspan61819-1-1"
           style="font-size:7.09279px;fill:#0000ff;stroke-width:0.37997"
           x="-74.994965"
           y="1323.1351"><tspan
             style="font-size:5.06628px;fill:#0000ff;stroke-width:0.37997"
             id="tspan68079-0-1">C</tspan></tspan></text>
      <path
         style="fill:none;stroke:#0000ff;stroke-width:0.9;stroke-linecap:round;stroke-linejoin:round;stroke-miterlimit:4;stroke-dasharray:none;stroke-opacity:1"
         d="m -63.646837,1208.322 5.3e-4,-1.9285 -1.77615,-1.2311 3.29351,-1.8313 -3.27374,-1.5955 3.24996,-1.7803 -3.28615,-1.6925 3.29487,-1.6253 -1.48013,-1.2079 -0.0337,-2.5027"
         id="path69421-49-4-6-8"
         sodipodi:nodetypes="cccccccccc" />
      <circle
         style="fill:#0000ff;fill-opacity:1;stroke:#0000ff;stroke-width:0.9;stroke-linecap:round;stroke-linejoin:round;stroke-miterlimit:4;stroke-dasharray:none"
         id="path64955-6-5-9-5-9"
         cx="-63.419312"
         cy="1176.8887"
         r="1.1241155" />
      <text
         xml:space="preserve"
         style="font-size:4.23333px;line-height:1.25;font-family:sans-serif;-inkscape-font-specification:sans-serif;letter-spacing:0px;word-spacing:0px;fill:#0000ff;stroke:#0000ff;stroke-width:0.264583;stroke-linecap:round;stroke-linejoin:round"
         x="-74.488403"
         y="1176.7887"
         id="text95143-0-0-2-3"><tspan
           sodipodi:role="line"
           id="tspan95141-4-9-6-6"
           style="fill:#0000ff;stroke:#0000ff;stroke-width:0.264583;stroke-linecap:round;stroke-linejoin:round"
           x="-74.488403"
           y="1176.7887">Vcc      5V</tspan></text>
      <path
         style="fill:#0000ff;stroke:#0000ff;stroke-width:0.9;stroke-linecap:round;stroke-linejoin:round;stroke-miterlimit:4;stroke-dasharray:none;stroke-opacity:1"
         d="m -63.657837,1192.9269 0.0957,-14.8483"
         id="path161112-8-1-5-8" />
      <circle
         style="fill:#0000ff;fill-opacity:1;stroke:#0000ff;stroke-width:0.81419;stroke-linecap:round;stroke-linejoin:round;stroke-miterlimit:4;stroke-dasharray:none"
         id="path64955-8-0-1-6-0"
         cx="-63.72583"
         cy="1213.5253"
         r="1.0169374" />
      <path
         style="fill:none;stroke:#0000ff;stroke-width:0.9;stroke-linecap:round;stroke-linejoin:round;stroke-miterlimit:4;stroke-dasharray:none;stroke-opacity:1"
         d="m -63.646835,1208.322 v 5.1988"
         id="path59274" />
      <text
         xml:space="preserve"
         style="font-style:normal;font-weight:normal;font-size:7.09279px;line-height:1.25;font-family:sans-serif;letter-spacing:0px;word-spacing:0px;fill:#0000ff;fill-opacity:1;stroke:none;stroke-width:0.37997"
         x="-74.750252"
         y="1202.9908"
         id="text61821"><tspan
           sodipodi:role="line"
           id="tspan61819"
           style="font-size:7.09279px;fill:#0000ff;stroke-width:0.37997"
           x="-74.750252"
           y="1202.9908">R<tspan
   style="font-size:5.06628px;fill:#0000ff;stroke-width:0.37997"
   id="tspan68079">1</tspan></tspan></text>
    </g>
  </g>
</svg>
